{
	"dbUrl": "mongodb://chatcatuser:mychatcat@ds055812.mongolab.com:55812/chatcat",
	"sessionSecret": "ADJHSMBDFDFD3454FDD54fdfgdiu98988",
	"facebook": {
		"appId": "436709366532321",
		"appSecret": "90915ceaae1fc926a00a7dfd45adfa7a",
		"callbackUrl": "http://localhost:3000/auth/facebook/callback"
	},
	"host": ""
}